<svg width="111.123047" height="56.000000" viewBox="0 0 111.123 56" fill="none" xmlns="http://www.w3.org/2000/svg" xmlns:xlink="http://www.w3.org/1999/xlink">
	<desc>
			Created with Pixso.
	</desc>
	<defs>
		<clipPath id="clip2_74">
			<rect id="fi-rr-align-right" width="16.000000" height="16.000000" transform="translate(20.000000 20.000000)" fill="white" fill-opacity="0"/>
		</clipPath>
	</defs>
	<rect id="fi-rr-align-right" width="16.000000" height="16.000000" transform="translate(20.000000 20.000000)" fill="#FFFFFF" fill-opacity="0"/>
	<rect id="fi-rr-align-right" width="16.000000" height="16.000000" transform="translate(20.000000 20.000000)" fill="#FFFFFF" fill-opacity="0"/>
	<g clip-path="url(#clip2_74)">
		<path id="Vector" d="M20.6666 24L35.3334 24C35.5101 24 35.6797 23.9298 35.8047 23.8047C35.9298 23.6797 36 23.5102 36 23.3333C36 23.1566 35.9298 22.987 35.8047 22.8619C35.6797 22.7369 35.5101 22.6667 35.3334 22.6667L20.6666 22.6667C20.4899 22.6667 20.3203 22.7369 20.1953 22.8619C20.0702 22.987 20 23.1566 20 23.3333C20 23.5102 20.0702 23.6797 20.1953 23.8047C20.3203 23.9298 20.4899 24 20.6666 24Z" fill="#FFFFFF" fill-opacity="1.000000" fill-rule="nonzero"/>
		<path id="Vector" d="M35.3335 26L26.0001 26C25.8234 26 25.6538 26.0703 25.5288 26.1953C25.4037 26.3203 25.3335 26.4899 25.3335 26.6667C25.3335 26.8435 25.4037 27.0131 25.5288 27.1381C25.6538 27.2631 25.8234 27.3333 26.0001 27.3333L35.3335 27.3333C35.5103 27.3333 35.6799 27.2631 35.8049 27.1381C35.9299 27.0131 36.0001 26.8435 36.0001 26.6667C36.0001 26.4899 35.9299 26.3203 35.8049 26.1953C35.6799 26.0703 35.5103 26 35.3335 26Z" fill="#FFFFFF" fill-opacity="1.000000" fill-rule="nonzero"/>
		<path id="Vector" d="M35.3335 32.6667L26.0001 32.6667C25.8234 32.6667 25.6538 32.7369 25.5288 32.8619C25.4037 32.9869 25.3335 33.1565 25.3335 33.3333C25.3335 33.5101 25.4037 33.6797 25.5288 33.8047C25.6538 33.9297 25.8234 34 26.0001 34L35.3335 34C35.5103 34 35.6799 33.9297 35.8049 33.8047C35.9299 33.6797 36.0001 33.5101 36.0001 33.3333C36.0001 33.1565 35.9299 32.9869 35.8049 32.8619C35.6799 32.7369 35.5103 32.6667 35.3335 32.6667Z" fill="#FFFFFF" fill-opacity="1.000000" fill-rule="nonzero"/>
		<path id="Vector" d="M35.3334 29.3333L20.6666 29.3333C20.4899 29.3333 20.3203 29.4036 20.1953 29.5286C20.0702 29.6536 20 29.8232 20 30C20 30.1768 20.0702 30.3464 20.1953 30.4714C20.3203 30.5964 20.4899 30.6667 20.6666 30.6667L35.3334 30.6667C35.5101 30.6667 35.6797 30.5964 35.8047 30.4714C35.9298 30.3464 36 30.1768 36 30C36 29.8232 35.9298 29.6536 35.8047 29.5286C35.6797 29.4036 35.5101 29.3333 35.3334 29.3333Z" fill="#FFFFFF" fill-opacity="1.000000" fill-rule="nonzero"/>
	</g>
	<rect id="header menu item" rx="10.000000" width="54.000000" height="54.000000" transform="translate(1.000000 1.000000)" stroke="#FFFFFF" stroke-opacity="1.000000" stroke-width="2.000000"/>
</svg>
